2

 640.0000000000  480.0000000000  529.8670654297    0.0000000000  355.1136169434    0.0000000000  529.3579101562  221.3570709229    0.0000000000    0.0000000000    1.0000000000   -0.4270197749    0.2140352726   -0.0008045345   -0.0000259539   -0.9544772506   -0.2327644676    0.1865311116   -0.0815123618    0.8050839901    0.5875333548   -0.2869301140    0.5455826521   -0.7874075770   33.1027946472  -57.7353897095  519.1781005859 

 640.0000000000  480.0000000000  530.5096435547    0.0000000000  336.5064392090    0.0000000000  530.2135009766  231.0787048340    0.0000000000    0.0000000000    1.0000000000   -0.4088172913    0.1709892452   -0.0005343264    0.0009903192   -0.9660336375   -0.2162928432    0.1414085478   -0.0838764384    0.7800282240    0.6200973392   -0.2444252670    0.5871740580   -0.7716754079  -32.7605285645  -77.4581604004  503.7541198730 

 -14.2286262512  -23.3566188812  640.0000000000   17.9598655701  647.5723876953  478.1747436523  -21.4806098938  542.5892333984 
   0.0024308614  -36.2572822571  663.2334594727    1.3750958443  653.9353027344  473.9735717773   -0.0342593640  510.9922485352 
   1.2485151248   -0.0140021226  -14.2286262512    0.0709070232    1.1511124005  -23.3566188812    0.0003535670   -0.0000514965    1.0000000000 
   1.2013248384   -0.0000776104    0.0024308613    0.0591427434    1.1575898528  -36.2572822571    0.0002488209    0.0000342210    1.0000000000 
